{
  "type": "minecraft:crafting_shaped",
  "pattern": [
    "IUI"
  ],
  "key": {
    "I": {
      "item": "minecraft:gold_block"
    },
    "U": {
      "item": "autoworkstations:iron_auto_experience_orb_vacuum"
    }
  },
  "result": {
    "item": "autoworkstations:gold_auto_experience_orb_vacuum",
    "count": 1
  }
}
