{
  "type": "minecraft:crafting_shaped",
  "pattern": [
    "PRP",
    "GBG",
    "OCO"
  ],
  "key": {
    "P": {
      "tag": "minecraft:planks"
    },
    "R": {
      "item": "minecraft:redstone"
    },
    "G": {
      "item": "minecraft:glass_pane"
    },
    "B": {
      "item": "minecraft:brewing_stand"
    },
    "O": {
      "item": "minecraft:iron_block"
    },
    "C": {
      "item": "minecraft:copper_block"
    }
  },
  "result": {
    "item": "autoworkstations:iron_auto_brewing_stand",
    "count": 1
  }
}
